<svg xmlns="http://www.w3.org/2000/svg" width="75" height="75" viewBox="0 0 75 75">
    <g fill="none" fill-rule="evenodd">
        <g>
            <g fill="#FFAE0F" fill-rule="nonzero">
                <g>
                    <g>
                        <path d="M37.5 12.85c.708 0 1.18-.443 1.18-1.108V8.974c0-.664-.472-1.107-1.18-1.107s-1.18.443-1.18 1.107v2.768c0 .665.472 1.108 1.18 1.108zM41.976 13.55l1.923-2.005c.453-.445.34-1.113-.113-1.559-.453-.445-1.131-.334-1.584.112l-1.923 2.004c-.452.445-.34 1.113.113 1.558.453.335 1.132.335 1.584-.11zM32.969 13.484c.465.468 1.162.585 1.627.117.465-.469.582-1.17.117-1.639l-1.86-2.106c-.465-.469-1.163-.586-1.628-.117-.465.468-.581 1.17-.116 1.638l1.86 2.107z"/>
                        <path d="M31.08 32.026h-.908c-1.02 0-1.814.797-1.814 1.822v5.01c0 1.024.794 1.82 1.814 1.82h3.062v1.253h-1.36c-.681 0-1.135.57-1.135 1.139 0 .683.454 1.138 1.134 1.138h1.474c.34 1.48 1.7 2.733 3.401 2.733h1.814c1.701 0 3.061-1.139 3.402-2.733h1.474c.68 0 1.133-.57 1.133-1.138 0-.684-.453-1.139-1.133-1.139h-1.361V40.68h3.061c1.02 0 1.814-.797 1.814-1.822v-5.01c0-1.024-.793-1.82-1.814-1.82h-.907c.34-2.847 1.7-5.58 3.742-7.743 2.607-2.732 4.081-6.261 4.081-10.018 0-8.198-7.03-14.8-15.306-14.232-7.03.456-12.812 6.034-13.492 12.98-.34 4.212 1.134 8.424 4.082 11.384 2.04 2.05 3.401 4.782 3.741 7.628zm8.73 11.272c0 .683-.567 1.252-1.248 1.252h-1.814c-.68 0-1.247-.57-1.247-1.252v-2.733h4.309v2.733zm4.761-9.108v3.984c-10.544 0-13.718.114-13.945.114v-3.985s2.04 0 13.945-.113zm-8.39-16.509c0-.683.567-1.138 1.247-1.138.68 0 1.248.57 1.248 1.138 0 .683-.567 1.139-1.248 1.139-.68 0-1.247-.57-1.247-1.139zm-10.77-4.554c.566-5.92 5.442-10.588 11.337-10.93h.68c6.69 0 12.132 5.352 12.132 11.955 0 3.188-1.134 6.148-3.401 8.425-2.495 2.619-4.082 5.92-4.422 9.336h-3.175V20.869c1.36-.455 2.381-1.708 2.381-3.188 0-1.935-1.587-3.415-3.514-3.415-1.928 0-3.402 1.594-3.402 3.415 0 1.48 1.02 2.733 2.381 3.188v11.044h-2.947c-.34-3.416-1.928-6.718-4.536-9.222-2.608-2.505-3.855-5.92-3.514-9.564zM17.552 62.643h-4.186c3.055-.68 5.204-3.401 5.204-6.69 0-3.74-3.054-6.915-6.9-6.915-3.847 0-6.9 3.061-6.9 6.916 0 3.174 2.262 5.895 5.203 6.689H5.787C2.62 62.643.131 65.25.131 68.31v5.555c0 .68.453 1.134 1.131 1.134h20.815c.679 0 1.131-.454 1.131-1.134v-5.555c0-3.174-2.602-5.668-5.656-5.668zm-10.52-6.689c0-2.494 2.036-4.648 4.638-4.648s4.638 2.04 4.638 4.648c0 2.608-2.036 4.648-4.638 4.648-2.602-.113-4.638-2.154-4.638-4.648zM2.394 72.733V68.31c0-1.927 1.583-3.4 3.393-3.4H17.44c1.923 0 3.394 1.586 3.394 3.4v4.422H2.393zM43.251 62.643h-4.185c3.054-.68 5.203-3.401 5.203-6.69 0-3.74-3.054-6.915-6.9-6.915-3.846 0-6.9 3.061-6.9 6.916 0 3.174 2.262 5.895 5.203 6.689h-4.185c-3.168 0-5.657 2.607-5.657 5.668v5.555c0 .68.453 1.134 1.132 1.134h20.814c.679 0 1.131-.454 1.131-1.134v-5.555c0-3.174-2.601-5.668-5.656-5.668zm-10.52-6.689c0-2.494 2.036-4.648 4.638-4.648s4.638 2.04 4.638 4.648c0 2.608-2.036 4.648-4.638 4.648s-4.638-2.154-4.638-4.648zm-4.638 16.779V68.31c0-1.927 1.583-3.4 3.393-3.4h11.652c1.923 0 3.394 1.586 3.394 3.4v4.422h-18.44zM69.213 62.643h-4.186c3.055-.68 5.204-3.401 5.204-6.69 0-3.74-3.054-6.915-6.9-6.915-3.847 0-6.9 3.061-6.9 6.916 0 3.174 2.262 5.895 5.203 6.689h-4.186c-3.167 0-5.656 2.607-5.656 5.668v5.555c0 .68.452 1.134 1.131 1.134h20.815c.679 0 1.13-.454 1.13-1.134v-5.555c0-3.174-2.6-5.668-5.655-5.668zm-10.52-6.689c0-2.494 2.036-4.648 4.638-4.648s4.638 2.04 4.638 4.648c0 2.608-2.036 4.648-4.638 4.648-2.602-.113-4.638-2.154-4.638-4.648zm13.914 16.779H54.054V68.31c0-1.927 1.584-3.4 3.394-3.4h11.765c1.923 0 3.394 1.586 3.394 3.4v4.422zM10.707 44.843c.681 0 1.136-.455 1.136-1.136l.113-32.257h7.494c.682 0 1.136-.455 1.136-1.136 0-.681-.455-1.136-1.136-1.136h-8.63c-.68 0-1.135.568-1.135 1.136l-.113 33.393c0 .681.454 1.136 1.135 1.136zM55.3 11.45h7.572v32.257c0 .681.459 1.136 1.147 1.136s1.147-.455 1.147-1.136V10.314c0-.681-.459-1.136-1.147-1.136h-8.72c-.688 0-1.147.455-1.147 1.136 0 .681.46 1.136 1.147 1.136z"/>
                    </g>
                </g>
            </g>
        </g>
    </g>
</svg>
