<svg xmlns="http://www.w3.org/2000/svg" viewBox="0 0 1118 701">
    <g fill="none" fill-rule="evenodd">
        <g>
            <path fill="#FFF" d="M0 0H1400V10918H0z" transform="translate(-141 -6296)"/>
            <g transform="translate(-141 -6296) translate(141 6296)">
                <g transform="translate(1)">
                    <path stroke="#000" stroke-width="1.44" d="M152.59 140.889L958.59 140.889M158.16 88h794.86c3.076 0 5.57 2.494 5.57 5.57v600.86c0 3.076-2.494 5.57-5.57 5.57H158.16c-3.076 0-5.57-2.494-5.57-5.57V93.57c0-3.076 2.494-5.57 5.57-5.57z"/>
                    <path stroke="#000" stroke-width="1.44" d="M205.59 115.257c0 3.834-3.134 6.942-7 6.942s-7-3.108-7-6.942 3.134-6.942 7-6.942c1.858-.005 3.641.725 4.955 2.028s2.05 3.072 2.045 4.914zM234.59 115.257c0 3.834-3.134 6.942-7 6.942s-7-3.108-7-6.942 3.134-6.942 7-6.942c1.858-.005 3.641.725 4.955 2.028s2.05 3.072 2.045 4.914zM263.59 115.257c0 3.834-3.134 6.942-7 6.942s-7-3.108-7-6.942 3.134-6.942 7-6.942c1.858-.005 3.641.725 4.955 2.028s2.05 3.072 2.045 4.914z"/>
                    <rect width="177" height="107.869" x=".59" y="319.781" stroke="#000" stroke-width="1.44" rx="4.74"/>
                    <rect width="237" height="171.949" x="878.59" y="224.728" stroke="#000" stroke-width="1.44" rx="5.12"/>
                    <path fill="#FFAE0F" fill-rule="nonzero" d="M192.613 61.903H32.585c-1.59 0-3.115-.633-4.24-1.76-1.123-1.127-1.755-2.655-1.755-4.249 0-1.592.632-3.119 1.757-4.243s2.65-1.753 4.238-1.748h160.028c3.3 0 5.977 2.682 5.977 5.991 0 3.312-2.673 6-5.977 6.009zM1109.612 526.903H984.568c-1.584.005-3.104-.625-4.226-1.749-1.122-1.124-1.752-2.65-1.752-4.242 0-3.319 2.676-6.01 5.978-6.01h125.044c1.596-.004 3.127.635 4.25 1.774 1.124 1.14 1.746 2.685 1.728 4.289-.03 3.295-2.7 5.948-5.978 5.938z"/>
                    <rect width="27" height="27" x="540.59" y=".903" fill="#FFAE0F" fill-rule="nonzero" rx="3.77"/>
                    <rect width="36" height="34" x=".59" y="497.903" fill="#FFAE0F" fill-rule="nonzero" rx="4.96"/>
                    <rect width="26" height="25" x="971.59" y="121.903" fill="#FFAE0F" fill-rule="nonzero" rx="3.55"/>
                    <path fill="#FFAE0F" fill-rule="nonzero" d="M1109.612 526.903H984.568c-1.584.005-3.104-.625-4.226-1.749-1.122-1.124-1.752-2.65-1.752-4.242 0-3.319 2.676-6.01 5.978-6.01h125.044c1.596-.004 3.127.635 4.25 1.774 1.124 1.14 1.746 2.685 1.728 4.289-.03 3.295-2.7 5.948-5.978 5.938z"/>
                    <rect width="26" height="25" x="971.59" y="121.903" fill="#FFAE0F" fill-rule="nonzero" rx="3.55"/>
                </g>
            </g>
        </g>
    </g>
</svg>
